accession,l1,l2,l3,l4,l5,l6,l7,l8
P16581,Adhesion,NULL,NULL,NULL,NULL,NULL,NULL,NULL
P19320,Adhesion,NULL,NULL,NULL,NULL,NULL,NULL,NULL
P16109,Adhesion,NULL,NULL,NULL,NULL,NULL,NULL,NULL
Q07817,Cytosolic other,NULL,NULL,NULL,NULL,NULL,NULL,NULL
Q07820,Cytosolic other,NULL,NULL,NULL,NULL,NULL,NULL,NULL
P07900,Cytosolic other,NULL,NULL,NULL,NULL,NULL,NULL,NULL
P19838,Cytosolic other,NULL,NULL,NULL,NULL,NULL,NULL,NULL
Q00653,Cytosolic other,NULL,NULL,NULL,NULL,NULL,NULL,NULL
P98170,Cytosolic other,NULL,NULL,NULL,NULL,NULL,NULL,NULL
P01112,Cytosolic other,NULL,NULL,NULL,NULL,NULL,NULL,NULL
P04618,Cytosolic other,NULL,NULL,NULL,NULL,NULL,NULL,NULL
P63316,Cytosolic other,NULL,NULL,NULL,NULL,NULL,NULL,NULL
P14635,Cytosolic other,NULL,NULL,NULL,NULL,NULL,NULL,NULL
P07901,Cytosolic other,NULL,NULL,NULL,NULL,NULL,NULL,NULL
P38936,Cytosolic other,NULL,NULL,NULL,NULL,NULL,NULL,NULL
P05177,Enzyme,Cytochrome P450,CYP_1,CYP_1A,CYP_1A2,NULL,NULL,NULL
P33261,Enzyme,Cytochrome P450,CYP_2,CYP_2C,CYP_2C19,NULL,NULL,NULL
P11712,Enzyme,Cytochrome P450,CYP_2,CYP_2C,CYP_2C9,NULL,NULL,NULL
P08684,Enzyme,Cytochrome P450,CYP_3,CYP_3A,CYP_3A4,NULL,NULL,NULL
Q12851,Kinase,Kinase,Protein Kinase,Ser_Thr,Ste,Ste20,Khs,NULL
Q99759,Kinase,Kinase,Protein Kinase,Ser_Thr,Ste,Ste11,Mekk2,NULL
O60674,Kinase,Kinase,Protein Kinase,Tyr,Tk,Jaka,NULL,NULL
O60674,Kinase,Kinase,Protein Kinase,Tyr,Tk,Jakb,NULL,NULL
P49841,Kinase,Kinase,Protein Kinase,Ser_Thr,Cmgc,Gsk,NULL,NULL
Q05397,Kinase,Kinase,Protein Kinase,Tyr,Tk,Fak,NULL,NULL
P30291,Kinase,Kinase,Protein Kinase,Ser_Thr,Other,Wee,NULL,NULL
Q9NZJ5,Kinase,Kinase,Protein Kinase,Ser_Thr,Other,Pek,Pek,NULL
P17612,Kinase,Kinase,Protein Kinase,Ser_Thr,Agc,Pka,NULL,NULL
P36888,Kinase,Kinase,Protein Kinase,Tyr,Tk,Pdgdfr,NULL,NULL
P48730,Kinase,Kinase,Protein Kinase,Ser_Thr,Ck1,Ck1,NULL,NULL
Q9BYT3,Kinase,Kinase,Protein Kinase,Ser_Thr,Camk,Camk-Unique,Camk-Unique,NULL
P04049,Kinase,Kinase,Protein Kinase,Ser_Thr_Tyr,Tkl,Raf,NULL,NULL
P28482,Kinase,Kinase,Protein Kinase,Ser_Thr,Cmgc,Mapk,Erk,NULL
P00533,Kinase,Kinase,Protein Kinase,Tyr,Tk,Egfr,NULL,NULL
O15111,Kinase,Kinase,Protein Kinase,Ser_Thr,Other,NULL,NULL,NULL
O43353,Kinase,Kinase,Protein Kinase,Ser_Thr,Tkl,Ripk,NULL,NULL
Q02750,Kinase,Kinase,Protein Kinase,Ser_Thr_Tyr,Ste,Ste7,NULL,NULL
Q9HAZ1,Kinase,Kinase,Protein Kinase,Ser_Thr_Tyr,Cmgc,Clk,NULL,NULL
P04626,Kinase,Kinase,Protein Kinase,Tyr,Tk,Egfr,NULL,NULL
P49759,Kinase,Kinase,Protein Kinase,Ser_Thr_Tyr,Cmgc,Clk,NULL,NULL
P25098,Kinase,Kinase,Protein Kinase,Ser_Thr,Agc,Grk,Bark,NULL
Q14289,Kinase,Kinase,Protein Kinase,Tyr,Tk,Fak,Fak,NULL
P54760,Kinase,Kinase,Protein Kinase,Tyr,Tk,Eph,NULL,NULL
Q13315,Kinase,Kinase,Protein Kinase,Ser,Atypical,PIKK,NULL,NULL
P49761,Kinase,Kinase,Protein Kinase,Ser_Thr_Tyr,Cmgc,Clk,NULL,NULL
Q9Y463,Kinase,Kinase,Protein Kinase,Ser_Thr_Tyr,Cmgc,Dyrk,Dyrk1,NULL
Q13627,Kinase,Kinase,Protein Kinase,Ser_Thr_Tyr,Cmgc,Dyrk,Dyrk1,NULL
P49760,Kinase,Kinase,Protein Kinase,Ser_Thr_Tyr,Cmgc,Clk,NULL,NULL
P00519,Kinase,Kinase,Protein Kinase,Tyr,Tk,Abl,NULL,NULL
Q15139,Kinase,Kinase,Protein Kinase,Ser_Thr,Camk,Pkd,NULL,NULL
Q00535,Kinase,Kinase,Protein Kinase,Ser_Thr,Cmgc,Cdk,Cdk5,NULL
Q15078,Kinase,Kinase,Protein Kinase,Ser_Thr,Reg,NULL,NULL,NULL
P49840,Kinase,Kinase,Protein Kinase,Ser_Thr,Cmgc,Gsk,NULL,NULL
P31749,Kinase,Kinase,Protein Kinase,Ser_Thr,Agc,Akt,NULL,NULL
P50613,Kinase,Kinase,Protein Kinase,Ser_Thr,Cmgc,Cdk,Cdk7,NULL
Q16539,Kinase,Kinase,Protein Kinase,Ser_Thr,Cmgc,Mapk,p38,NULL
P27361,Kinase,Kinase,Protein Kinase,Ser_Thr,Cmgc,Mapk,Erk,NULL
P24941,Kinase,Kinase,Protein Kinase,Ser_Thr,Cmgc,Cdk,Cdc2,NULL
P53779,Kinase,Kinase,Protein Kinase,Ser_Thr,Cmgc,Mapk,Jnk,NULL
P22694,Kinase,Kinase,Protein Kinase,Ser_Thr,Agc,Pka,NULL,NULL
P31323,Kinase,Kinase,Protein Kinase,Ser_Thr,Reg,NULL,NULL,NULL
P68181,Kinase,Kinase,Protein Kinase,Ser_Thr,Agc,Pka,NULL,NULL
O75116,Kinase,Kinase,Protein Kinase,Ser_Thr,Agc,Dmpk,Rock,NULL
Q9Y5S8,Enzyme,NULL,NULL,NULL,NULL,NULL,NULL,NULL
Q9Y570,Enzyme,NULL,NULL,NULL,NULL,NULL,NULL,NULL
P13798,Enzyme,NULL,NULL,NULL,NULL,NULL,NULL,NULL
Q8R2Y0,Enzyme,NULL,NULL,NULL,NULL,NULL,NULL,NULL
P18054,Enzyme,NULL,NULL,NULL,NULL,NULL,NULL,NULL
P16050,Enzyme,NULL,NULL,NULL,NULL,NULL,NULL,NULL
O75608,Enzyme,NULL,NULL,NULL,NULL,NULL,NULL,NULL
P78417,Enzyme,NULL,NULL,NULL,NULL,NULL,NULL,NULL
O75884,Enzyme,NULL,NULL,NULL,NULL,NULL,NULL,NULL
P00651,Enzyme,NULL,NULL,NULL,NULL,NULL,NULL,NULL
P10253,Enzyme,NULL,NULL,NULL,NULL,NULL,NULL,NULL
P04062,Enzyme,NULL,NULL,NULL,NULL,NULL,NULL,NULL
P51570,Enzyme,NULL,NULL,NULL,NULL,NULL,NULL,NULL
P06280,Enzyme,NULL,NULL,NULL,NULL,NULL,NULL,NULL
P35575,Enzyme,NULL,NULL,NULL,NULL,NULL,NULL,NULL
P03070,Enzyme,NULL,NULL,NULL,NULL,NULL,NULL,NULL
Q9H3R0,Enzyme,NULL,NULL,NULL,NULL,NULL,NULL,NULL
Q15788,Enzyme,NULL,NULL,NULL,NULL,NULL,NULL,NULL
Q9Y6Q9,Enzyme,NULL,NULL,NULL,NULL,NULL,NULL,NULL
P05186,Enzyme,NULL,NULL,NULL,NULL,NULL,NULL,NULL
P28562,Enzyme,NULL,NULL,NULL,NULL,NULL,NULL,NULL
Q64346,Enzyme,NULL,NULL,NULL,NULL,NULL,NULL,NULL
Q13093,Enzyme,NULL,NULL,NULL,NULL,NULL,NULL,NULL
Q60963,Enzyme,NULL,NULL,NULL,NULL,NULL,NULL,NULL
Q9UM07,Enzyme,NULL,NULL,NULL,NULL,NULL,NULL,NULL
P38398,Enzyme,NULL,NULL,NULL,NULL,NULL,NULL,NULL
Q03164,Enzyme,NULL,NULL,NULL,NULL,NULL,NULL,NULL
P17405,Enzyme,NULL,NULL,NULL,NULL,NULL,NULL,NULL
Q8K4F5,Enzyme,NULL,NULL,NULL,NULL,NULL,NULL,NULL
P14618,Enzyme,NULL,NULL,NULL,NULL,NULL,NULL,NULL
P08679,Enzyme,NULL,NULL,NULL,NULL,NULL,NULL,NULL
P14904,Enzyme,NULL,NULL,NULL,NULL,NULL,NULL,NULL
P07237,Enzyme,NULL,NULL,NULL,NULL,NULL,NULL,NULL
Q9QXX3,Enzyme,NULL,NULL,NULL,NULL,NULL,NULL,NULL
O75604,Enzyme,NULL,NULL,NULL,NULL,NULL,NULL,NULL
P09488,Enzyme,NULL,NULL,NULL,NULL,NULL,NULL,NULL
P30613,Enzyme,NULL,NULL,NULL,NULL,NULL,NULL,NULL
P55789,Enzyme,NULL,NULL,NULL,NULL,NULL,NULL,NULL
Q03530,Enzyme,NULL,NULL,NULL,NULL,NULL,NULL,NULL
O89049,Enzyme,NULL,NULL,NULL,NULL,NULL,NULL,NULL
Q9UBT2,Enzyme,NULL,NULL,NULL,NULL,NULL,NULL,NULL
P63279,Enzyme,NULL,NULL,NULL,NULL,NULL,NULL,NULL
P09923,Enzyme,NULL,NULL,NULL,NULL,NULL,NULL,NULL
Q9NUW8,Enzyme,NULL,NULL,NULL,NULL,NULL,NULL,NULL
P00883,Enzyme,NULL,NULL,NULL,NULL,NULL,NULL,NULL
O14939,Enzyme,NULL,NULL,NULL,NULL,NULL,NULL,NULL
Q13393,Enzyme,NULL,NULL,NULL,NULL,NULL,NULL,NULL
P31941,Enzyme,NULL,NULL,NULL,NULL,NULL,NULL,NULL
Q99LR1,Enzyme,NULL,NULL,NULL,NULL,NULL,NULL,NULL
P21836,Enzyme,NULL,NULL,NULL,NULL,NULL,NULL,NULL
Q9Z1Q2,Enzyme,NULL,NULL,NULL,NULL,NULL,NULL,NULL
O08914,Enzyme,NULL,NULL,NULL,NULL,NULL,NULL,NULL
P19096,Enzyme,NULL,NULL,NULL,NULL,NULL,NULL,NULL
Q8BLF1,Enzyme,NULL,NULL,NULL,NULL,NULL,NULL,NULL
Q8VDG7,Enzyme,NULL,NULL,NULL,NULL,NULL,NULL,NULL
Q7TMR0,Enzyme,NULL,NULL,NULL,NULL,NULL,NULL,NULL
Q91WC9,Enzyme,NULL,NULL,NULL,NULL,NULL,NULL,NULL
P54310,Enzyme,NULL,NULL,NULL,NULL,NULL,NULL,NULL
O35678,Enzyme,NULL,NULL,NULL,NULL,NULL,NULL,NULL
O81014,Enzyme,NULL,NULL,NULL,NULL,NULL,NULL,NULL
P39748,Enzyme,NULL,NULL,NULL,NULL,NULL,NULL,NULL
Q8TCT1,Enzyme,NULL,NULL,NULL,NULL,NULL,NULL,NULL
P42345,Enzyme,NULL,NULL,NULL,NULL,NULL,NULL,NULL
P10696,Enzyme,NULL,NULL,NULL,NULL,NULL,NULL,NULL
P34949,Enzyme,NULL,NULL,NULL,NULL,NULL,NULL,NULL
O15305,Enzyme,NULL,NULL,NULL,NULL,NULL,NULL,NULL
Q8WTS1,Enzyme,NULL,NULL,NULL,NULL,NULL,NULL,NULL
Q92830,Enzyme,NULL,NULL,NULL,NULL,NULL,NULL,NULL
Q96KQ7,Enzyme,NULL,NULL,NULL,NULL,NULL,NULL,NULL
O75164,Enzyme,NULL,NULL,NULL,NULL,NULL,NULL,NULL
P07202,Enzyme,NULL,NULL,NULL,NULL,NULL,NULL,NULL
Q92813,Enzyme,NULL,NULL,NULL,NULL,NULL,NULL,NULL
P61088,Enzyme,NULL,NULL,NULL,NULL,NULL,NULL,NULL
Q9Y4P1,Enzyme,NULL,NULL,NULL,NULL,NULL,NULL,NULL
Q8NCG7,Enzyme,NULL,NULL,NULL,NULL,NULL,NULL,NULL
Q9HC16,Enzyme,NULL,NULL,NULL,NULL,NULL,NULL,NULL
Q9BQF6,Enzyme,NULL,NULL,NULL,NULL,NULL,NULL,NULL
Q96LD8,Enzyme,NULL,NULL,NULL,NULL,NULL,NULL,NULL
P0AE70,Enzyme,NULL,NULL,NULL,NULL,NULL,NULL,NULL
Q9UNA4,Enzyme,NULL,NULL,NULL,NULL,NULL,NULL,NULL
Q9UBT6,Enzyme,NULL,NULL,NULL,NULL,NULL,NULL,NULL
Q9Y253,Enzyme,NULL,NULL,NULL,NULL,NULL,NULL,NULL
P14735,Enzyme,NULL,NULL,NULL,NULL,NULL,NULL,NULL
P97697,Enzyme,NULL,NULL,NULL,NULL,NULL,NULL,NULL
Q63470,Enzyme,NULL,NULL,NULL,NULL,NULL,NULL,NULL
Q9GZR1,Enzyme,NULL,NULL,NULL,NULL,NULL,NULL,NULL
Q99487,Enzyme,NULL,NULL,NULL,NULL,NULL,NULL,NULL
P04839,Enzyme,NULL,NULL,NULL,NULL,NULL,NULL,NULL
Q9HBY0,Enzyme,NULL,NULL,NULL,NULL,NULL,NULL,NULL
Q9NPH5,Enzyme,NULL,NULL,NULL,NULL,NULL,NULL,NULL
Q9GZU7,Enzyme,NULL,NULL,NULL,NULL,NULL,NULL,NULL
Q92793,Enzyme,NULL,NULL,NULL,NULL,NULL,NULL,NULL
Q13526,Enzyme,NULL,NULL,NULL,NULL,NULL,NULL,NULL
P15428,Enzyme,NULL,NULL,NULL,NULL,NULL,NULL,NULL
O15296,Enzyme,NULL,NULL,NULL,NULL,NULL,NULL,NULL
P54132,Enzyme,NULL,NULL,NULL,NULL,NULL,NULL,NULL
P04054,Enzyme,NULL,NULL,NULL,NULL,NULL,NULL,NULL
P26358,Enzyme,NULL,NULL,NULL,NULL,NULL,NULL,NULL
Q2TB90,Enzyme,NULL,NULL,NULL,NULL,NULL,NULL,NULL
P04406,Enzyme,NULL,NULL,NULL,NULL,NULL,NULL,NULL
P49327,Enzyme,NULL,NULL,NULL,NULL,NULL,NULL,NULL
Q15102,Enzyme,NULL,NULL,NULL,NULL,NULL,NULL,NULL
P68402,Enzyme,NULL,NULL,NULL,NULL,NULL,NULL,NULL
Q99728,Enzyme,NULL,NULL,NULL,NULL,NULL,NULL,NULL
P08394,Enzyme,NULL,NULL,NULL,NULL,NULL,NULL,NULL
P07648,Enzyme,NULL,NULL,NULL,NULL,NULL,NULL,NULL
P04993,Enzyme,NULL,NULL,NULL,NULL,NULL,NULL,NULL
P46063,Enzyme,NULL,NULL,NULL,NULL,NULL,NULL,NULL
O94782,Enzyme,NULL,NULL,NULL,NULL,NULL,NULL,NULL
P06746,Enzyme,NULL,NULL,NULL,NULL,NULL,NULL,NULL
P19367,Enzyme,NULL,NULL,NULL,NULL,NULL,NULL,NULL
P11413,Enzyme,NULL,NULL,NULL,NULL,NULL,NULL,NULL
P35557,Enzyme,NULL,NULL,NULL,NULL,NULL,NULL,NULL
O00167,Enzyme,NULL,NULL,NULL,NULL,NULL,NULL,NULL
O15379,Enzyme,NULL,NULL,NULL,NULL,NULL,NULL,NULL
O94759,Enzyme,NULL,NULL,NULL,NULL,NULL,NULL,NULL
Q03137,Enzyme,NULL,NULL,NULL,NULL,NULL,NULL,NULL
P00722,Enzyme,NULL,NULL,NULL,NULL,NULL,NULL,NULL
P00352,Enzyme,NULL,NULL,NULL,NULL,NULL,NULL,NULL
P47154,Enzyme,NULL,NULL,NULL,NULL,NULL,NULL,NULL
P23141,Enzyme,NULL,NULL,NULL,NULL,NULL,NULL,NULL
Q8IUX4,Enzyme,NULL,NULL,NULL,NULL,NULL,NULL,NULL
P98073,Enzyme,NULL,NULL,NULL,NULL,NULL,NULL,NULL
Q9Y2R2,Phosphatase,Phosphatase,Protein Phosphatase,Tyr,NULL,NULL,NULL,NULL
P35236,Phosphatase,Phosphatase,Protein Phosphatase,Tyr,NULL,NULL,NULL,NULL
P30305,Phosphatase,Phosphatase,Protein Phosphatase,Ser_Thr_Tyr,NULL,NULL,NULL,NULL
P51452,Phosphatase,Phosphatase,Protein Phosphatase,Ser_Thr_Tyr,NULL,NULL,NULL,NULL
P62136,Phosphatase,Phosphatase,Protein Phosphatase,Ser_Thr,NULL,NULL,NULL,NULL
P62140,Phosphatase,Phosphatase,Protein Phosphatase,Ser_Thr,NULL,NULL,NULL,NULL
Q05209,Phosphatase,Phosphatase,Protein Phosphatase,Tyr,NULL,NULL,NULL,NULL
P67775,Phosphatase,Phosphatase,Protein Phosphatase,Ser_Thr,NULL,NULL,NULL,NULL
Q06124,Phosphatase,Phosphatase,Protein Phosphatase,Tyr,NULL,NULL,NULL,NULL
Q07343,Enzyme,Phosphodiesterase,PDE_4,PDE_4B,NULL,NULL,NULL,NULL
Q9QUR6,Protease,Protease,Serine,SC,S9A,NULL,NULL,NULL
P07711,Protease,Protease,Cysteine,CA,C1A,NULL,NULL,NULL
P07858,Protease,Protease,Cysteine,CA,C1A,NULL,NULL,NULL
P09871,Protease,Protease,Serine,PAS,S1A,NULL,NULL,NULL
P25774,Protease,Protease,Cysteine,CA,C1A,NULL,NULL,NULL
P45452,Protease,Protease,Metallo,MAM,M10A,NULL,NULL,NULL
P08311,Protease,Protease,Serine,PAS,S1A,NULL,NULL,NULL
P29466,Protease,Protease,Cysteine,CD,C14,NULL,NULL,NULL
P42574,Protease,Protease,Cysteine,CD,C14,NULL,NULL,NULL
P55210,Protease,Protease,Cysteine,CD,C14,NULL,NULL,NULL
Q9Y256,Protease,Protease,Unknown,U-,U48,NULL,NULL,NULL
Q64514,Protease,Protease,Serine,SB,S8A,NULL,NULL,NULL
P22894,Protease,Protease,Metallo,MAM,M10A,NULL,NULL,NULL
P08253,Protease,Protease,Metallo,MAM,M10A,NULL,NULL,NULL
P08254,Protease,Protease,Metallo,MAM,M10A,NULL,NULL,NULL
P50281,Protease,Protease,Metallo,MAM,M10A,NULL,NULL,NULL
Q9Y337,Protease,Protease,Serine,PAS,S1A,NULL,NULL,NULL
P28843,Protease,Protease,Serine,SC,S9B,NULL,NULL,NULL
P23946,Protease,Protease,Serine,PAS,S1A,NULL,NULL,NULL
P55211,Protease,Protease,Cysteine,CD,C14,NULL,NULL,NULL
P00734,Protease,Protease,Serine,PAS,S1A,NULL,NULL,NULL
P20918,Protease,Protease,Serine,PAS,S1A ,NULL,NULL,NULL
P06869,Protease,Protease,Serine,PAS,S1A,NULL,NULL,NULL
P34913,Protease,Protease,Serine,SC,S33,NULL,NULL,NULL
P09958,Protease,Protease,Serine,SB,S8B,NULL,NULL,NULL
P48147,Protease,Protease,Serine,SC,S9A,NULL,NULL,NULL
P70677,Protease,Protease,Cysteine,CD,C14A ,NULL,NULL,NULL
P55213,Protease,Protease,Cysteine,CD ,C14A,NULL,NULL,NULL
P00735,Protease,Protease,Serine,PAS,S1A,NULL,NULL,NULL
P18508,Ion channel,LGIC,CYS_LOOP,GABAA,ANIONIC,CL,GABA-A gamma,NULL
P22756,Ion channel,LGIC,GLUT,KAINATE,CATIONIC,NS,NULL,NULL
P35439,Ion channel,LGIC,GLUT,NMDA,CATIONIC,NS,NULL,NULL
Q00960,Ion channel,LGIC,GLUT,NMDA,CATIONIC,NS,NULL,NULL
P35436,Ion channel,LGIC,GLUT,NMDA,CATIONIC,NS,NULL,NULL
P32297,Ion channel,LGIC,CYS_LOOP,ACH,CATIONIC,NS,CHRN alpha,NULL
P02708,Ion channel,LGIC,CYS_LOOP,ACH,CATIONIC,NS,CHRN alpha,NULL
P46098,Ion channel,LGIC,CYS_LOOP,5HT3,CATIONIC,NS,NULL,NULL
P63079,Ion channel,LGIC,CYS_LOOP,GABAA,ANIONIC,CL,GABA-A beta,NULL
P24046,Ion channel,LGIC,CYS_LOOP,GABAA,ANIONIC,CL,GABA-A rho,NULL
Q15822,Ion channel,LGIC,CYS_LOOP,ACH,CATIONIC,NS,CHRN alpha,NULL
P17787,Ion channel,LGIC,CYS_LOOP,ACH,CATIONIC,NS,CHRN beta,NULL
P30926,Ion channel,LGIC,CYS_LOOP,ACH,CATIONIC,NS,CHRN beta,NULL
P43681,Ion channel,LGIC,CYS_LOOP,ACH,CATIONIC,NS,CHRN alpha,NULL
P14867,Ion channel,LGIC,CYS_LOOP,GABAA,ANIONIC,CL,GABA-A alpha,NULL
Q05586,Ion channel,LGIC,GLUT,NMDA,CATIONIC,NS,NULL,NULL
Q63273,Ion channel,LGIC,GLUT,KAINATE,CATIONIC,NS,NULL,NULL
Q8NER1,Ion channel,TRP,TRP,VANILLOID,CATIONIC,NS,TRPV (Vanilloid),NULL
Q12809,Ion channel,VGC,VGC,VOLT,CATIONIC,K,"KCNH, Kv10-12.x (Ether-a-go-go)",NULL
O88943,Ion channel,VGC,VGC,VOLT,CATIONIC,K,"KCNQ, Kv7.x (KQT-like)",NULL
O95180,Ion channel,VGC,VGC,VOLT,CATIONIC,CA,"CACN alpha-1, CaVx.x",T-TYPE
P51787,Ion channel,VGC,VGC,VOLT,CATIONIC,K,"KCNQ, Kv7.x (KQT-like)",NULL
P04774,Ion channel,VGC,VGC,VOLT,CATIONIC,NA,"SCN alpha, NaV1.x",NULL
Q00975,Ion channel,VGC,VGC,VOLT,CATIONIC,CA,"CACN alpha-1, CaVx.x",N-TYPE
Q9P0X4,Ion channel,VGC,VGC,VOLT,CATIONIC,CA,"CACN alpha-1, CaVx.x",T-TYPE
Q9NR82,Ion channel,VGC,VGC,VOLT,CATIONIC,K,"KCNQ, Kv7.x (KQT-like)",NULL
O88944,Ion channel,VGC,VGC,VOLT,CATIONIC,K,"KCNQ, Kv7.x (KQT-like)",NULL
P56696,Ion channel,VGC,VGC,VOLT,CATIONIC,K,"KCNQ, Kv7.x (KQT-like)",NULL
P15382,Ion channel,VGC,VGC,VOLT,CATIONIC,K,"KCNE, (Isk)",NULL
P09471,Membrane other,NULL,NULL,NULL,NULL,NULL,NULL,NULL
P84996,Membrane other,NULL,NULL,NULL,NULL,NULL,NULL,NULL
P08912,Membrane receptor,7TM1,SmallMol,Monoamine receptor,Acetylcholine receptor,NULL,NULL,NULL
P49146,Membrane receptor,7TM1,Peptide,Short Peptide,Neuropeptide Y receptor,NULL,NULL,NULL
P16473,Membrane receptor,7TM1,Peptide,Glycohormone receptor,Glycohormone receptor,NULL,NULL,NULL
P41145,Membrane receptor,7TM1,Peptide,Short Peptide,Opioid receptor,NULL,NULL,NULL
Q99705,Membrane receptor,7TM1,Peptide,Short Peptide,MCH receptor,NULL,NULL,NULL
O95977,Membrane receptor,7TM1,SmallMol,Lipid-like ligand receptor,EDG receptor,NULL,NULL,NULL
P21453,Membrane receptor,7TM1,SmallMol,Lipid-like ligand receptor,EDG receptor,NULL,NULL,NULL
O95136,Membrane receptor,7TM1,SmallMol,Lipid-like ligand receptor,EDG receptor,NULL,NULL,NULL
Q99500,Membrane receptor,7TM1,SmallMol,Lipid-like ligand receptor,EDG receptor,NULL,NULL,NULL
Q9H228,Membrane receptor,7TM1,SmallMol,Lipid-like ligand receptor,EDG receptor,NULL,NULL,NULL
P25116,Membrane receptor,7TM1,Peptide,Protease-activated receptor,Protease-activated receptor,NULL,NULL,NULL
P28566,Membrane receptor,7TM1,SmallMol,Monoamine receptor,Serotonin receptor,NULL,NULL,NULL
P08908,Membrane receptor,7TM1,SmallMol,Monoamine receptor,Serotonin receptor,NULL,NULL,NULL
O43613,Membrane receptor,7TM1,Peptide,Short Peptide,Orexin receptor,NULL,NULL,NULL
P08173,Membrane receptor,7TM1,SmallMol,Monoamine receptor,Acetylcholine receptor,NULL,NULL,NULL
P35363,Membrane receptor,7TM1,SmallMol,Monoamine receptor,Serotonin receptor,NULL,NULL,NULL
P08482,Membrane receptor,7TM1,SmallMol,Monoamine receptor,Acetylcholine receptor,NULL,NULL,NULL
P25929,Membrane receptor,7TM1,Peptide,Short Peptide,Neuropeptide Y receptor,NULL,NULL,NULL
P34972,Membrane receptor,7TM1,SmallMol,Lipid-like ligand receptor,Cannabinoid receptor,NULL,NULL,NULL
P21554,Membrane receptor,7TM1,SmallMol,Lipid-like ligand receptor,Cannabinoid receptor,NULL,NULL,NULL
P08485,Membrane receptor,7TM1,SmallMol,Monoamine receptor,Acetylcholine receptor,NULL,NULL,NULL
P08172,Membrane receptor,7TM1,SmallMol,Monoamine receptor,Acetylcholine receptor,NULL,NULL,NULL
P20309,Membrane receptor,7TM1,SmallMol,Monoamine receptor,Acetylcholine receptor,NULL,NULL,NULL
P11229,Membrane receptor,7TM1,SmallMol,Monoamine receptor,Acetylcholine receptor,NULL,NULL,NULL
P30542,Membrane receptor,7TM1,SmallMol,Nucleotide-like receptor,Adenosine receptor,NULL,NULL,NULL
P29274,Membrane receptor,7TM1,SmallMol,Nucleotide-like receptor,Adenosine receptor,NULL,NULL,NULL
Q6P2N6,Membrane receptor,7TM1,SmallMol,Nucleotide-like receptor,Adenosine receptor,NULL,NULL,NULL
P43140,Membrane receptor,7TM1,SmallMol,Monoamine receptor,Adrenergic receptor,NULL,NULL,NULL
P25100,Membrane receptor,7TM1,SmallMol,Monoamine receptor,Adrenergic receptor,NULL,NULL,NULL
P08913,Membrane receptor,7TM1,SmallMol,Monoamine receptor,Adrenergic receptor,NULL,NULL,NULL
P08588,Membrane receptor,7TM1,SmallMol,Monoamine receptor,Adrenergic receptor,NULL,NULL,NULL
P07550,Membrane receptor,7TM1,SmallMol,Monoamine receptor,Adrenergic receptor,NULL,NULL,NULL
P46663,Membrane receptor,7TM1,Peptide,Short Peptide,Bradykinin receptor,NULL,NULL,NULL
P30411,Membrane receptor,7TM1,Peptide,Short Peptide,Bradykinin receptor,NULL,NULL,NULL
P21728,Membrane receptor,7TM1,SmallMol,Monoamine receptor,Dopamine receptor,NULL,NULL,NULL
P14416,Membrane receptor,7TM1,SmallMol,Monoamine receptor,Dopamine receptor,NULL,NULL,NULL
P21917,Membrane receptor,7TM1,SmallMol,Monoamine receptor,Dopamine receptor,NULL,NULL,NULL
P35462,Membrane receptor,7TM1,SmallMol,Monoamine receptor,Dopamine receptor,NULL,NULL,NULL
P25101,Membrane receptor,7TM1,Peptide,Short Peptide,Endothelin receptor,NULL,NULL,NULL
P24530,Membrane receptor,7TM1,Peptide,Short Peptide,Endothelin receptor,NULL,NULL,NULL
P35367,Membrane receptor,7TM1,SmallMol,Monoamine receptor,Histamine receptor,NULL,NULL,NULL
P25021,Membrane receptor,7TM1,SmallMol,Monoamine receptor,Histamine receptor,NULL,NULL,NULL
Q9Y5N1,Membrane receptor,7TM1,SmallMol,Monoamine receptor,Histamine receptor,NULL,NULL,NULL
Q9Y271,Membrane receptor,7TM1,SmallMol,Lipid-like ligand receptor,Leukotriene receptor,NULL,NULL,NULL
P48039,Membrane receptor,7TM1,SmallMol,Monoamine-derivative,Melatonin,NULL,NULL,NULL
P41143,Membrane receptor,7TM1,Peptide,Short Peptide,Opioid receptor,NULL,NULL,NULL
P35372,Membrane receptor,7TM1,Peptide,Short Peptide,Opioid receptor,NULL,NULL,NULL
P35408,Membrane receptor,7TM1,SmallMol,Lipid-like ligand receptor,Prostanoid receptor,NULL,NULL,NULL
P49651,Membrane receptor,7TM1,SmallMol,Nucleotide-like receptor,Purine receptor,NULL,NULL,NULL
P25103,Membrane receptor,7TM1,Peptide,Short Peptide,Neurokinin receptor,NULL,NULL,NULL
P47898,Membrane receptor,7TM1,SmallMol,Monoamine receptor,Serotonin receptor,NULL,NULL,NULL
P35368,Membrane receptor,7TM1,SmallMol,Monoamine receptor,Adrenergic receptor,NULL,NULL,NULL
P41595,Membrane receptor,7TM1,SmallMol,Monoamine receptor,Serotonin receptor,NULL,NULL,NULL
P37288,Membrane receptor,7TM1,Peptide,Short Peptide,Vasopressin/Oxytocin receptor,NULL,NULL,NULL
P30559,Membrane receptor,7TM1,Peptide,Short Peptide,Vasopressin/Oxytocin receptor,NULL,NULL,NULL
O43603,Membrane receptor,7TM1,Peptide,Short Peptide,Galanin receptor,NULL,NULL,NULL
P21462,Membrane receptor,7TM1,Peptide,N-formyl methionyl peptide receptor,N-formyl methionyl peptide receptor,NULL,NULL,NULL
P28222,Membrane receptor,7TM1,SmallMol,Monoamine receptor,Serotonin receptor,NULL,NULL,NULL
P28221,Membrane receptor,7TM1,SmallMol,Monoamine receptor,Serotonin receptor,NULL,NULL,NULL
P28223,Membrane receptor,7TM1,SmallMol,Monoamine receptor,Serotonin receptor,NULL,NULL,NULL
P28335,Membrane receptor,7TM1,SmallMol,Monoamine receptor,Serotonin receptor,NULL,NULL,NULL
P50406,Membrane receptor,7TM1,SmallMol,Monoamine receptor,Serotonin receptor,NULL,NULL,NULL
P34969,Membrane receptor,7TM1,SmallMol,Monoamine receptor,Serotonin receptor,NULL,NULL,NULL
P35348,Membrane receptor,7TM1,SmallMol,Monoamine receptor,Adrenergic receptor,NULL,NULL,NULL
P13945,Membrane receptor,7TM1,SmallMol,Monoamine receptor,Adrenergic receptor,NULL,NULL,NULL
P21918,Membrane receptor,7TM1,SmallMol,Monoamine receptor,Dopamine receptor,NULL,NULL,NULL
Q9H3N8,Membrane receptor,7TM1,SmallMol,Monoamine receptor,Histamine receptor,NULL,NULL,NULL
P23945,Membrane receptor,7TM1,Peptide,Glycohormone receptor,Glycohormone receptor,NULL,NULL,NULL
P22888,Membrane receptor,7TM1,Peptide,Glycohormone receptor,Glycohormone receptor,NULL,NULL,NULL
P18089,Membrane receptor,7TM1,SmallMol,Monoamine receptor,Adrenergic receptor,NULL,NULL,NULL
P18825,Membrane receptor,7TM1,SmallMol,Monoamine receptor,Adrenergic receptor,NULL,NULL,NULL
O43614,Membrane receptor,7TM1,Peptide,Short Peptide,Orexin receptor,NULL,NULL,NULL
P30556,Membrane receptor,7TM1,Peptide,Short Peptide,Angiotensin receptor,NULL,NULL,NULL
P43116,Membrane receptor,7TM1,SmallMol,Lipid-like ligand receptor,Prostanoid receptor,NULL,NULL,NULL
P43115,Membrane receptor,7TM1,SmallMol,Lipid-like ligand receptor,Prostanoid receptor,NULL,NULL,NULL
P51684,Membrane receptor,7TM1,Peptide,Chemokine receptor,CC chemokine receptor,NULL,NULL,NULL
P34981,Membrane receptor,7TM1,Peptide,Short Peptide,Neuropeptide receptor,NULL,NULL,NULL
P30989,Membrane receptor,7TM1,Peptide,Short Peptide,Neurotensin receptor,NULL,NULL,NULL
P32245,Membrane receptor,7TM1,Peptide,Short Peptide,Melanocortin receptor,NULL,NULL,NULL
P47901,Membrane receptor,7TM1,Peptide,Short Peptide,Vasopressin/Oxytocin receptor,NULL,NULL,NULL
P30518,Membrane receptor,7TM1,Peptide,Short Peptide,Vasopressin/Oxytocin receptor,NULL,NULL,NULL
Q13639,Membrane receptor,7TM1,SmallMol,Monoamine receptor,Serotonin receptor,NULL,NULL,NULL
P43220,Membrane receptor,7TM2,NULL,NULL,Glucagon-like peptide receptor,NULL,NULL,NULL
Q13324,Membrane receptor,7TM2,NULL,NULL,Corticotropin releasing factor receptor,NULL,NULL,NULL
Q14833,Membrane receptor,7TM3,NULL,NULL,Metabotropic glutamate receptor,NULL,NULL,NULL
P70579,Membrane receptor,7TM3,NULL,NULL,Metabotropic glutamate receptor,NULL,NULL,NULL
P31423,Membrane receptor,7TM3,NULL,NULL,Metabotropic glutamate receptor,NULL,NULL,NULL
P35400,Membrane receptor,7TM3,NULL,NULL,Metabotropic glutamate receptor,NULL,NULL,NULL
P23385,Membrane receptor,7TM3,NULL,NULL,Metabotropic glutamate receptor,NULL,NULL,NULL
P31421,Membrane receptor,7TM3,NULL,NULL,Metabotropic glutamate receptor,NULL,NULL,NULL
P31422,Membrane receptor,7TM3,NULL,NULL,Metabotropic glutamate receptor,NULL,NULL,NULL
O15303,Membrane receptor,7TM3,NULL,NULL,Metabotropic glutamate receptor,NULL,NULL,NULL
P31424,Membrane receptor,7TM3,NULL,NULL,Metabotropic glutamate receptor,NULL,NULL,NULL
Q9UBS5,Membrane receptor,7TM3,NULL,NULL,GABA-B receptor,NULL,NULL,NULL
Q14832,Membrane receptor,7TM3,NULL,NULL,Metabotropic glutamate receptor,NULL,NULL,NULL
P13612,Membrane receptor,NULL,NULL,NULL,NULL,NULL,NULL,NULL
P05067,Membrane receptor,NULL,NULL,NULL,NULL,NULL,NULL,NULL
P05556,Membrane receptor,NULL,NULL,NULL,NULL,NULL,NULL,NULL
Q99720,Membrane receptor,NULL,NULL,NULL,NULL,NULL,NULL,NULL
Q9R0C9,Membrane receptor,NULL,NULL,NULL,NULL,NULL,NULL,NULL
P11215,Membrane receptor,NULL,NULL,NULL,NULL,NULL,NULL,NULL
P05107,Membrane receptor,NULL,NULL,NULL,NULL,NULL,NULL,NULL
O00206,Membrane receptor,NULL,NULL,NULL,NULL,NULL,NULL,NULL
P16257,Membrane receptor,NULL,NULL,NULL,NULL,NULL,NULL,NULL
O14786,Membrane receptor,NULL,NULL,NULL,NULL,NULL,NULL,NULL
P08514,Membrane receptor,NULL,NULL,NULL,NULL,NULL,NULL,NULL
P08648,Membrane receptor,NULL,NULL,NULL,NULL,NULL,NULL,NULL
P06492,Nuclear other,NULL,NULL,NULL,NULL,NULL,NULL,NULL
Q00987,Nuclear other,NULL,NULL,NULL,NULL,NULL,NULL,NULL
P01375,Secreted,NULL,NULL,NULL,NULL,NULL,NULL,NULL
P10145,Secreted,NULL,NULL,NULL,NULL,NULL,NULL,NULL
P68871,Secreted,NULL,NULL,NULL,NULL,NULL,NULL,NULL
O14786,Secreted,NULL,NULL,NULL,NULL,NULL,NULL,NULL
P55055,Transcription Factor,Nuclear Receptor,NR1,NR1H,NR1H3,NULL,NULL,NULL
Q96RI1,Transcription Factor,Nuclear Receptor,NR1,NR1H,NR1H4,NULL,NULL,NULL
P37231,Transcription Factor,Nuclear Receptor,NR1,NR1C,NR1C3,NULL,NULL,NULL
Q13285,Transcription Factor,Nuclear Receptor,NR5,NR5A,NR5A1,NULL,NULL,NULL
O75469,Transcription Factor,Nuclear Receptor,NR1,NR1I,NR1I2,NULL,NULL,NULL
P04150,Transcription Factor,Nuclear Receptor,NR3,NR3C,NR3C1,NULL,NULL,NULL
Q13133,Transcription Factor,Nuclear Receptor,NR1,NR1H,NR1H3,NULL,NULL,NULL
P10275,Transcription Factor,Nuclear Receptor,NR3,NR3C,NR3C4,NULL,NULL,NULL
P03372,Transcription Factor,Nuclear Receptor,NR3,NR3A,NR3A1,NULL,NULL,NULL
Q92731,Transcription Factor,Nuclear Receptor,NR3,NR3A,NR3A2,NULL,NULL,NULL
P11474,Transcription Factor,Nuclear Receptor,NR3,NR3B,NR3B1,NULL,NULL,NULL
O95718,Transcription Factor,Nuclear Receptor,NR3,NR3B,NR3B2,NULL,NULL,NULL
P62508,Transcription Factor,Nuclear Receptor,NR3,NR3B,NR3B3,NULL,NULL,NULL
Q9Y5X4,Transcription Factor,Nuclear Receptor,NR2,NR2E,NR2E3,NULL,NULL,NULL
P08235,Transcription Factor,Nuclear Receptor,NR3,NR3C,NR3C2,NULL,NULL,NULL
O00482,Transcription Factor,Nuclear Receptor,NR5,NR5A,NR5A2,NULL,NULL,NULL
P06401,Transcription Factor,Nuclear Receptor,NR3,NR3C,NR3C3,NULL,NULL,NULL
Q07869,Transcription Factor,Nuclear Receptor,NR1,NR1C,NR1C1,NULL,NULL,NULL
Q03181,Transcription Factor,Nuclear Receptor,NR1,NR1C,NR1C2,NULL,NULL,NULL
P10276,Transcription Factor,Nuclear Receptor,NR1,NR1B,NR1B1,NULL,NULL,NULL
P10826,Transcription Factor,Nuclear Receptor,NR1,NR1B,NR1B2,NULL,NULL,NULL
P13631,Transcription Factor,Nuclear Receptor,NR1,NR1B,NR1B3,NULL,NULL,NULL
P19793,Transcription Factor,Nuclear Receptor,NR2,NR2B,NR2B1,NULL,NULL,NULL
P48443,Transcription Factor,Nuclear Receptor,NR2,NR2B,NR2B3,NULL,NULL,NULL
P10827,Transcription Factor,Nuclear Receptor,NR1,NR1A,NR1A1,NULL,NULL,NULL
P10828,Transcription Factor,Nuclear Receptor,NR1,NR1A,NR1A2,NULL,NULL,NULL
P11473,Transcription Factor,Nuclear Receptor,NR1,NR1I,NR1I1,NULL,NULL,NULL
P15207,Transcription Factor,Nuclear Receptor,NR3,NR3C,NR3C4,NULL,NULL,NULL
P63059,Transcription Factor,Nuclear Receptor,NR1,NR1A,NR1A1,NULL,NULL,NULL
Q16665,Transcription Factor,NULL,NULL,NULL,NULL,NULL,NULL,NULL
P40763,Transcription Factor,NULL,NULL,NULL,NULL,NULL,NULL,NULL
Q04206,Transcription Factor,NULL,NULL,NULL,NULL,NULL,NULL,NULL
P19838,Transcription Factor,NULL,NULL,NULL,NULL,NULL,NULL,NULL
Q00653,Transcription Factor,NULL,NULL,NULL,NULL,NULL,NULL,NULL
P35869,Transcription Factor,NULL,NULL,NULL,NULL,NULL,NULL,NULL
P04637,Transcription Factor,NULL,NULL,NULL,NULL,NULL,NULL,NULL
Q01959,Transporter,Electrochemical,Na-symporter,Neurotransmitter,Dopamine,NULL,NULL,NULL
P23975,Transporter,Electrochemical,Na-symporter,Neurotransmitter,Norepinephrine,NULL,NULL,NULL
P31645,Transporter,Electrochemical,Na-symporter,Neurotransmitter,Serotonin,NULL,NULL,NULL
Q9GZV3,Transporter,Electrochemical,Na-symporter,Neurotransmitter,Choline,NULL,NULL,NULL
P08183,Transporter,NTPase,ATP binding cassette,MDR,drug,NULL,NULL,NULL
P33527,Transporter,NTPase,ATP binding cassette,MRP,drugs,NULL,NULL,NULL
P13569,Transporter,NTPase,ATP binding cassette,CFTR,chloride,NULL,NULL,NULL
